prime256v1,26,1319.678998676209,50.75688456446957,0.2589292427550571
secp384r1,20,675.1764725095295,33.758823625476474,0.3626322526730159
frodo640aes,19,817.7507508577417,43.039513203039036,0.6284833781521676
frodo640shake,22,652.3357006225326,29.651622755569665,0.30504136967580014
frodo976aes,18,579.1393047720936,32.174405820671865,0.703246812737233
frodo976shake,19,381.9983516983091,20.105176405174163,0.4944791806907766
frodo1344aes,17,420.26885969808677,24.72169762929922,0.5715324175297688
frodo1344shake,17,253.76863659114352,14.92756685830256,0.3170658403945084
bike1l1cpa,17,1048.0285346150536,61.648737330297266,0.6210046125315403
bike1l3cpa,16,524.6108964112808,32.78818102570505,0.36602563144812467
bike1l1fo,20,973.1821953630185,48.65910976815093,0.5769141335026973
bike1l3fo,19,479.18357974764314,25.220188407770692,0.9962303775826143
kyber512,14,1211.1526063421602,86.51090045301144,0.8086060531245088
kyber768,13,1209.7863401558554,93.06048770429658,0.745133097292924
kyber1024,15,1240.0656030194368,82.67104020129578,0.650478319400201
newhope512cca,21,1313.7976176674586,62.56179131749803,0.3744092788097132
newhope1024cca,18,1179.4126891911865,65.52292717728814,0.4353449900021952
ntru_hps2048509,17,442.0706357837416,26.004155046102447,0.31110409205843714
ntru_hps2048677,17,288.4838130089037,16.969636059347277,0.37047026314917036
ntru_hps4096821,14,224.59466203659463,16.04247585975676,0.13447899317386947
ntru_hrss701,18,302.4076242661349,16.80042357034083,0.2791186905304888
lightsaber,23,1311.278477838685,57.01210773211674,0.410520199286498
saber,13,1231.768520739023,94.75142467223253,0.8124799079418724
firesaber,19,1197.805054555911,63.04237129241637,0.4405232910294243
sidhp434,19,74.21147628383942,3.9058671728336534,0.1030565701079514
sidhp503,16,48.0139994430973,3.000874965193581,0.26632993091443463
sidhp610,14,23.68594960656732,1.6918535433262372,0.24354511446889446
sidhp751,11,13.385863100334738,1.2168966454849761,0.16140417277097785
sikep434,15,62.81226891586751,4.187484594391168,0.3003433612732439
sikep503,15,41.792939411939955,2.786195960795997,0.19861710107417585
sikep610,12,20.029321194169142,1.6691100995140953,0.1318534339553922
sikep751,10,10.953030118588794,1.0953030118588793,0.08125716360514716
p256-frodo640aes,23,841.5895594788277,36.59085041212295,0.3748160581651216
p256-frodo640shake,20,628.6030570104247,31.43015285052123,0.6555732643265152
p256-frodo976aes,18,568.889003665159,31.604944648064386,0.5143761250254916
p256-frodo976shake,21,392.33168744665323,18.682461306983488,0.3922469562744453
p256-frodo1344aes,16,408.6952304901277,25.54345190563298,0.4572405772023187
p256-frodo1344shake,20,267.1474740342454,13.357373701712271,0.24785454470634155
p256-bike1l1cpa,18,1015.7978155812391,56.43321197673551,0.5185418991051289
p256-bike1l3cpa,21,531.5707105977383,25.31289098084468,0.3552521664665243
p256-bike1l1fo,16,1022.4050214647784,63.90031384154865,0.6756435906337123
p256-bike1l3fo,16,472.8533819159935,29.553336369749594,0.8982270564489895
p256-kyber512,22,1283.166071542292,58.325730524649636,0.4518804575839452
p256-kyber768,15,1156.4900407538012,77.09933605025341,0.6162237004138789
p256-kyber1024,15,1184.6962463932812,78.97974975955208,0.6453541301469461
p256-newhope512cca,22,1175.495522200203,53.43161464546377,0.3130090494483341
p256-newhope1024cca,18,1109.5138200657834,61.6396566703213,0.3256632431565525
p256-ntru_hps2048509,20,419.19794836442605,20.959897418221303,0.33283536575500844
p256-ntru_hps2048677,19,288.9349164071799,15.207100863535786,0.35908047866625076
p256-ntru_hps4096821,17,224.41823710231753,13.201072770724561,0.15735805922689627
p256-ntru_hrss701,20,303.69160290526065,15.184580145263032,0.4691420080925529
p256-lightsaber,19,1248.7084651803937,65.72149816738914,0.4770150393107521
p256-saber,22,1198.3685984889685,54.47129993131675,0.35913208924001283
p256-firesaber,25,1071.593999095841,42.86375996383364,0.25462551338183553
p256-sidhp434,16,64.78728419255934,4.049205262034959,0.3111105543665123
p256-sidhp503,19,49.97325979588001,2.630171568204211,0.27864836931354237
p256-sidhp610,13,23.951931383904338,1.8424562603003336,0.23584720453526659
p256-sidhp751,11,12.008421273366329,1.091674661215121,0.13640766208517685
p256-sikep434,10,56.12994432144733,5.612994432144733,0.2758386094031476
p256-sikep503,14,41.64136843954288,2.9743834599673487,0.1855770350549573
p256-sikep610,12,20.441492671061916,1.703457722588493,0.11225257597592385
p256-sikep751,11,12.103482673026408,1.1003166066387644,0.06718964889460172
