prime256v1,21,502.27813229302683,23.918006299667944,0.06302098781006724
secp384r1,22,274.7496070230813,12.48861850104915,0.066038822053833
frodo640aes,20,376.8050662363636,18.84025331181818,0.06613210998940564
frodo640shake,24,301.6313494988681,12.56797289578617,0.07865949568149416
frodo976aes,16,303.74022926509303,18.983764329068315,0.038982521627140734
frodo976shake,16,201.29569323222648,12.580980827014155,0.04081347044095778
frodo1344aes,13,228.8000224734789,17.600001728729147,0.026210636295853063
frodo1344shake,12,136.41545085314172,11.36795423776181,0.05745064174757763
bike1l1cpa,10,456.30449831726145,45.630449831726146,0.08249395708971048
bike1l3cpa,15,362.39574415179686,24.159716276786458,0.06572315001544062
bike1l1fo,14,457.9960635336561,32.714004538118296,0.055296793135297465
bike1l3fo,20,360.89480902105765,18.04474045105288,0.07252521211170809
kyber512,22,494.5800610092414,22.480911864056427,0.16016268079490525
kyber768,23,501.7579626342515,21.815563592793545,0.10907514137686833
kyber1024,17,487.55032283431353,28.67943075495962,0.07055477849862189
newhope512cca,21,503.7608773507959,23.98861320718076,0.09641069494474659
newhope1024cca,19,476.7342671198452,25.09127721683396,0.06886428026818793
ntru_hps2048509,12,305.4580309084853,25.45483590904044,0.03323663604240651
ntru_hps2048677,14,244.97328352667176,17.498091680476556,0.22378480964707018
ntru_hps4096821,15,204.06905303837857,13.604603535891904,0.2281113219425242
ntru_hrss701,11,219.12651691491433,19.920592446810392,0.02961074980395596
lightsaber,17,502.0754819816315,29.533851881272444,0.06738899659551885
saber,22,486.56797593858767,22.116726179026713,0.0887311666337423
firesaber,17,465.0299161930731,27.35470095253371,0.07279147597116738
sidhp434,10,28.13415749098851,2.813415749098851,0.018850378244587383
sidhp503,9,18.782454860031553,2.0869394288923946,0.016361046229949442
sidhp610,9,10.36433554904376,1.15159283878264,0.0178217045073504
sidhp751,9,5.63136403427786,0.6257071149197623,0.022036865861277233
sikep434,11,30.782738250077408,2.798430750007037,0.025264818732251098
sikep503,11,20.49807244223468,1.8634611311122435,0.01586292826905543
sikep610,9,9.858441808152598,1.0953824231280664,0.03557561339089402
sikep751,9,5.899678994441733,0.6555198882713037,0.05245950090200169
p256-frodo640aes,19,363.64280895135806,19.139095207966214,0.05376524582158793
p256-frodo640shake,19,293.62690760802764,15.45404776884356,0.058958623570593734
p256-frodo976aes,17,291.9721642792846,17.174833192899094,0.04122577435223007
p256-frodo976shake,13,194.11787255032158,14.932144042332428,0.019603716406882136
p256-frodo1344aes,19,223.49179817374778,11.762726219670936,0.05428954799448308
p256-frodo1344shake,16,134.78079522817802,8.423799701761126,0.04275067605044466
p256-bike1l1cpa,22,438.7046875437844,19.94112216108111,0.08305254019191607
p256-bike1l3cpa,15,350.8486188929436,23.38990792619624,0.04341088402882155
p256-bike1l1fo,11,432.95644715875835,39.35967701443258,0.038610059446546066
p256-bike1l3fo,18,345.9439819738363,19.21911010965757,0.07111067636978412
p256-kyber512,25,485.9123786468466,19.436495145873863,0.09222851111870792
p256-kyber768,11,469.30118450822613,42.663744046202375,0.06158435960960753
p256-kyber1024,21,456.1873660170285,21.723207905572785,0.10163894923022816
p256-newhope512cca,19,472.3643473356834,24.86128143872018,0.07080037262857891
p256-newhope1024cca,25,459.2133231238902,18.368532924955606,0.09515886579653528
p256-ntru_hps2048509,10,282.56469133639723,28.256469133639722,0.010794421691877084
p256-ntru_hps2048677,17,276.8910005095581,16.28770591232695,0.03862752522153972
p256-ntru_hps4096821,24,227.4638963088609,9.477662346202537,0.09385545010803198
p256-ntru_hrss701,11,213.17428676292346,19.379480614811225,0.043540370582528146
p256-lightsaber,19,476.61458691012683,25.08497825842773,0.08636265426756395
p256-saber,19,460.00347503982096,24.210709212622156,0.0916442720792283
p256-firesaber,21,441.18356571936755,21.00874122473179,0.08730047519699943
p256-sidhp434,11,28.706452092156578,2.6096774629233255,0.024511222084466606
p256-sidhp503,10,19.24558312685616,1.924558312685616,0.018190562587817236
p256-sidhp610,9,10.526106837773481,1.1695674264192757,0.011189428441866711
p256-sidhp751,9,6.097387133734559,0.6774874593038399,0.016505432566185134
p256-sikep434,13,30.944100073753287,2.380315390288714,0.019946655658563548
p256-sikep503,9,19.9282751995172,2.2142527999463555,0.01781798256669223
p256-sikep610,9,9.590221653572282,1.0655801837302536,0.04409315208894731
p256-sikep751,9,5.858395259043757,0.6509328065604174,0.0422804072768974
